[api-updater (non-obsolete-error-filter)] 16/09/2021 6:48:09 a. m. : Starting C:/Program Files/Unity/Hub/Editor/2020.3.16f1/Editor/Data/Tools/ScriptUpdater/APIUpdater.NonObsoleteApiUpdaterDetector.exe
[api-updater (non-obsolete-error-filter)] 
----------------------------------
jit/startup time      : 759.846ms
moved types parse time: 83ms
candidates parse time : 1ms
C# parse time         : 335ms
candidates check time : 40ms
console write time    : 1ms

[api-updater (non-obsolete-error-filter)] 16/09/2021 7:10:55 a. m. : Starting C:/Program Files/Unity/Hub/Editor/2020.3.16f1/Editor/Data/Tools/ScriptUpdater/APIUpdater.NonObsoleteApiUpdaterDetector.exe
[api-updater (non-obsolete-error-filter)] 
----------------------------------
jit/startup time      : 120.0564ms
moved types parse time: 65ms
candidates parse time : 1ms
C# parse time         : 248ms
candidates check time : 39ms
console write time    : 0ms

[api-updater (non-obsolete-error-filter)] 16/09/2021 7:11:23 a. m. : Starting C:/Program Files/Unity/Hub/Editor/2020.3.16f1/Editor/Data/Tools/ScriptUpdater/APIUpdater.NonObsoleteApiUpdaterDetector.exe
[api-updater (non-obsolete-error-filter)] 
----------------------------------
jit/startup time      : 107.6142ms
moved types parse time: 72ms
candidates parse time : 1ms
C# parse time         : 243ms
candidates check time : 33ms
console write time    : 0ms

[api-updater (non-obsolete-error-filter)] 16/09/2021 8:04:24 a. m. : Starting C:/Program Files/Unity/Hub/Editor/2020.3.16f1/Editor/Data/Tools/ScriptUpdater/APIUpdater.NonObsoleteApiUpdaterDetector.exe
[api-updater (non-obsolete-error-filter)] 
----------------------------------
jit/startup time      : 127.6892ms
moved types parse time: 77ms
candidates parse time : 1ms
C# parse time         : 261ms
candidates check time : 35ms
console write time    : 0ms

